[
  {
    "id": "webhook",
    "execute-command": "/usr/bin/bash",
    "command-working-directory": "/home/ubuntu/test-ec2",
    "pass-arguments-to-command": [
      {
        "source": "string",
        "name": "/home/ubuntu/webhooks/redeploy-laravel.sh"
      },
      {
        "source": "payload",
        "name": "push.changes.0.new.name"
      }
    ],
    "trigger-rule": {
      "or": [
        {
          "match": {
            "type": "ip-whitelist",
            "ip-range": "104.192.143.0/24"
          }
        },
        {
          "match": {
            "type": "ip-whitelist",
            "ip-range": "13.52.5.96/28"
          }
        },
        {
          "match": {
            "type": "ip-whitelist",
            "ip-range": "13.236.8.224/28"
          }
        },
        {
          "match": {
            "type": "ip-whitelist",
            "ip-range": "18.136.214.96/28"
          }
        },
        {
          "match": {
            "type": "ip-whitelist",
            "ip-range": "18.184.99.224/28"
          }
        },
        {
          "match": {
            "type": "ip-whitelist",
            "ip-range": "18.234.32.224/28"
          }
        },
        {
          "match": {
            "type": "ip-whitelist",
            "ip-range": "18.246.31.224/28"
          }
        },
        {
          "match": {
            "type": "ip-whitelist",
            "ip-range": "52.215.192.224/28"
          }
        },
        {
          "match": {
            "type": "ip-whitelist",
            "ip-range": "104.192.137.240/28"
          }
        },
        {
          "match": {
            "type": "ip-whitelist",
            "ip-range": "104.192.138.240/28"
          }
        },
        {
          "match": {
            "type": "ip-whitelist",
            "ip-range": "104.192.140.240/28"
          }
        },
        {
          "match": {
            "type": "ip-whitelist",
            "ip-range": "104.192.142.240/28"
          }
        },
        {
          "match": {
            "type": "ip-whitelist",
            "ip-range": "104.192.143.240/28"
          }
        },
        {
          "match": {
            "type": "ip-whitelist",
            "ip-range": "185.166.143.240/28"
          }
        },
        {
          "match": {
            "type": "ip-whitelist",
            "ip-range": "185.166.142.240/28"
          }
        }
      ]
    }
  }
]
